\relax 
\providecommand\zref@newlabel[2]{}
\catcode`"\active
\select@language{ukrainian}
\@writefile{toc}{\select@language{ukrainian}}
\@writefile{lof}{\select@language{ukrainian}}
\@writefile{lot}{\select@language{ukrainian}}
\@writefile{toc}{\contentsline {section}{\numberline {1}\IeC {\CYRR }\IeC {\cyra }\IeC {\cyrz }\IeC {\cyrd }\IeC {\cyre }\IeC {\cyrl } 1}{3}}
\newlabel{LastPage}{{}{3}}
\xdef\lastpage@lastpage{3}
\gdef\lastpage@lastpageHy{}
