\begin{thebibliography}{1}
\def\selectlanguageifdefined#1{
\expandafter\ifx\csname date#1\endcsname\relax
\else\language\csname l@#1\endcsname\fi}
\providecommand*{\href}[2]{{\small #2}}
\providecommand*{\url}[1]{{\small #1}}
\providecommand*{\BibUrl}[1]{\url{#1}}
\providecommand{\BibAnnote}[1]{}
\providecommand*{\BibEmph}[1]{#1}
\providecommand*{\cyrdash}{\hbox to.8em{--\hss--}}
\providecommand*{\BibDash}{\ifdim\lastskip>0pt\unskip\nobreak\hskip.2em\fi
\cyrdash\hskip.2em\ignorespaces}

\bibitem{lscm}
\selectlanguageifdefined{english}
\BibEmph{Bruno~Lévy~Sylvain~Petitjean~N.~R., Maillot~J.} {L}east {S}quare
  {C}onformal {M}aps ({LSCM})~// \BibEmph{ACM SIGGRAPH conference proceedings}.
  \BibDash
\newblock 2002.

\bibitem{parameterization}
\selectlanguageifdefined{english}
\BibEmph{Kai~Hormann~Bruno~Lévy~A.~S.} Mesh parameterization: Theory and
  practice~// \BibEmph{Siggraph Course Notes}. \BibDash
\newblock 2007.

\bibitem{polygon_triangulation}
\selectlanguageifdefined{english}
\BibEmph{fgshen}. Polygon triangulation in c\#. \BibDash
\newblock 2004. \BibDash October. \BibDash
\newblock URL:
  \BibUrl{http://www.codeproject.com/Articles/8238/Polygon-Triangulation-in-C}.

\bibitem{wavefront_obj}
\selectlanguageifdefined{english}
\BibEmph{Community~W.} Wavefront obj file. \BibDash
\newblock URL: \BibUrl{http://en.wikipedia.org/wiki/Wavefront\_.obj\_file}.

\bibitem{line_line_intersection}
\selectlanguageifdefined{english}
\BibEmph{Rees~G.} Intersection of two lines in three-space. \BibDash
\newblock URL: \BibUrl{http://stackoverflow.com/a/565282/330471}.

\bibitem{barycentric_coordinates}
\selectlanguageifdefined{english}
\BibEmph{Community~W.} Barycentric coordinate system. \BibDash
\newblock URL:
  \BibUrl{http://en.wikipedia.org/wiki/Barycentric\_coordinate\_system}.

\bibitem{point_in_triangle_test}
\selectlanguageifdefined{english}
\BibEmph{Scott~J.} Point in triangle test. \BibDash
\newblock URL: \BibUrl{http://www.blackpawn.com/texts/pointinpoly/}.

\end{thebibliography}
