\relax 
\providecommand\zref@newlabel[2]{}
\catcode`"\active
\select@language{ukrainian}
\@writefile{toc}{\select@language{ukrainian}}
\@writefile{lof}{\select@language{ukrainian}}
\@writefile{lot}{\select@language{ukrainian}}
\@writefile{toc}{\contentsline {section}{\IeC {\CYRV }\IeC {\cyrs }\IeC {\cyrt }\IeC {\cyru }\IeC {\cyrp }}{4}}
\citation{lscm}
\zref@newlabel{zref@1}{\abspage{6}\page{5}\pagevalue{5}}
\@writefile{toc}{\contentsline {section}{\numberline {1}\IeC {\CYRT }\IeC {\cyre }\IeC {\cyrh }\IeC {\cyrn }\IeC {\cyrii }\IeC {\cyrch }\IeC {\cyrn }\IeC {\cyre } \IeC {\cyrz }\IeC {\cyra }\IeC {\cyrv }\IeC {\cyrd }\IeC {\cyra }\IeC {\cyrn }\IeC {\cyrn }\IeC {\cyrya }}{6}}
\citation{parameterization}
\citation{lscm}
\@writefile{toc}{\contentsline {section}{\numberline {2}\IeC {\CYRP }\IeC {\cyro }\IeC {\cyrs }\IeC {\cyrt }\IeC {\cyra }\IeC {\cyrn }\IeC {\cyro }\IeC {\cyrv }\IeC {\cyrk }\IeC {\cyra } \IeC {\cyrz }\IeC {\cyra }\IeC {\cyrd }\IeC {\cyra }\IeC {\cyrch }\IeC {\cyrii } \IeC {\cyrt }\IeC {\cyra } \IeC {\cyra }\IeC {\cyrn }\IeC {\cyra }\IeC {\cyrl }\IeC {\cyrii }\IeC {\cyrz } \IeC {\cyrsh }\IeC {\cyrl }\IeC {\cyrya }\IeC {\cyrh }\IeC {\cyrii }\IeC {\cyrv } \IeC {\cyryi }\IeC {\cyryi } \IeC {\cyrv }\IeC {\cyri }\IeC {\cyrr }\IeC {\cyrii }\IeC {\cyrsh }\IeC {\cyre }\IeC {\cyrn }\IeC {\cyrn }\IeC {\cyrya }}{7}}
\@writefile{toc}{\contentsline {subsection}{\numberline {2.1}\IeC {\CYRP }\IeC {\cyra }\IeC {\cyrr }\IeC {\cyra }\IeC {\cyrm }\IeC {\cyre }\IeC {\cyrt }\IeC {\cyrr }\IeC {\cyri }\IeC {\cyrz }\IeC {\cyra }\IeC {\cyrc }\IeC {\cyrii }\IeC {\cyrya } \IeC {\cyrt }\IeC {\cyra } \IeC {\cyrt }\IeC {\cyre }\IeC {\cyrk }\IeC {\cyrs }\IeC {\cyrt }\IeC {\cyru }\IeC {\cyrr }\IeC {\cyrn }\IeC {\cyra } \IeC {\cyrr }\IeC {\cyro }\IeC {\cyrz }\IeC {\cyrg }\IeC {\cyro }\IeC {\cyrr }\IeC {\cyrt }\IeC {\cyrk }\IeC {\cyra } \IeC {\cyrp }\IeC {\cyro }\IeC {\cyrv }\IeC {\cyre }\IeC {\cyrr }\IeC {\cyrh }\IeC {\cyro }\IeC {\cyrn }\IeC {\cyrsftsn }}{7}}
\@writefile{toc}{\contentsline {subsection}{\numberline {2.2}\IeC {\CYRM }\IeC {\cyra }\IeC {\cyrt }\IeC {\cyre }\IeC {\cyrm }\IeC {\cyra }\IeC {\cyrt }\IeC {\cyri }\IeC {\cyrch }\IeC {\cyrn }\IeC {\cyre } \IeC {\cyro }\IeC {\cyrb }\IeC {\cyrgup }\IeC {\cyrr }\IeC {\cyru }\IeC {\cyrn }\IeC {\cyrt }\IeC {\cyru }\IeC {\cyrv }\IeC {\cyra }\IeC {\cyrn }\IeC {\cyrn }\IeC {\cyrya }}{8}}
\@writefile{toc}{\contentsline {subsubsection}{\numberline {2.2.1}\IeC {\CYRM }\IeC {\cyre }\IeC {\cyrt }\IeC {\cyro }\IeC {\cyrd } \IeC {\cyrv }\IeC {\cyrii }\IeC {\cyrd }\IeC {\cyrs }\IeC {\cyrt }\IeC {\cyra }\IeC {\cyrn }\IeC {\cyre }\IeC {\cyrishrt }}{9}}
\@writefile{toc}{\contentsline {subsubsection}{\numberline {2.2.2}\IeC {\CYRV }\IeC {\cyre }\IeC {\cyrk }\IeC {\cyrt }\IeC {\cyro }\IeC {\cyrr }\IeC {\cyrn }\IeC {\cyri }\IeC {\cyrishrt } \IeC {\cyrm }\IeC {\cyre }\IeC {\cyrt }\IeC {\cyro }\IeC {\cyrd }}{10}}
\@writefile{toc}{\contentsline {subsubsection}{\numberline {2.2.3}\IeC {\CYRM }\IeC {\cyre }\IeC {\cyrt }\IeC {\cyro }\IeC {\cyrd } \IeC {\cyrd }\IeC {\cyrv }\IeC {\cyro }\IeC {\cyrh } \IeC {\cyrk }\IeC {\cyrii }\IeC {\cyrl }}{11}}
\@writefile{toc}{\contentsline {subsubsection}{\numberline {2.2.4}\IeC {\CYRP }\IeC {\cyro }\IeC {\cyrr }\IeC {\cyrii }\IeC {\cyrv }\IeC {\cyrn }\IeC {\cyrya }\IeC {\cyrn }\IeC {\cyrn }\IeC {\cyrya } \IeC {\cyrt }\IeC {\cyro }\IeC {\cyrch }\IeC {\cyrn }\IeC {\cyro }\IeC {\cyrs }\IeC {\cyrt }\IeC {\cyrii } \IeC {\cyra }\IeC {\cyrl }\IeC {\cyrg }\IeC {\cyro }\IeC {\cyrr }\IeC {\cyri }\IeC {\cyrt }\IeC {\cyrm }\IeC {\cyrii }\IeC {\cyrv }}{14}}
\citation{polygon_triangulation}
\@writefile{toc}{\contentsline {subsection}{\numberline {2.3}\IeC {\CYRT }\IeC {\cyrr }\IeC {\cyri }\IeC {\cyra }\IeC {\cyrn }\IeC {\cyrg }\IeC {\cyru }\IeC {\cyrl }\IeC {\cyrya }\IeC {\cyrc }\IeC {\cyrii }\IeC {\cyrya } \IeC {\cyrv }\IeC {\cyri }\IeC {\cyrh }\IeC {\cyrii }\IeC {\cyrd }\IeC {\cyrn }\IeC {\cyro }\IeC {\cyryi } \IeC {\cyrp }\IeC {\cyro }\IeC {\cyrv }\IeC {\cyre }\IeC {\cyrr }\IeC {\cyrh }\IeC {\cyrn }\IeC {\cyrii }}{15}}
\@writefile{toc}{\contentsline {section}{\numberline {3}\IeC {\CYRP }\IeC {\cyrr }\IeC {\cyro }\IeC {\cyre }\IeC {\cyrk }\IeC {\cyrt }\IeC {\cyru }\IeC {\cyrv }\IeC {\cyra }\IeC {\cyrn }\IeC {\cyrn }\IeC {\cyrya } \IeC {\cyrs }\IeC {\cyri }\IeC {\cyrs }\IeC {\cyrt }\IeC {\cyre }\IeC {\cyrm }\IeC {\cyri }}{18}}
\@writefile{toc}{\contentsline {subsection}{\numberline {3.1}\IeC {\CYRV }\IeC {\cyri }\IeC {\cyrb }\IeC {\cyrii }\IeC {\cyrr } \IeC {\cyrii }\IeC {\cyrn }\IeC {\cyrs }\IeC {\cyrt }\IeC {\cyrr }\IeC {\cyru }\IeC {\cyrm }\IeC {\cyre }\IeC {\cyrn }\IeC {\cyrt }\IeC {\cyra }\IeC {\cyrl }\IeC {\cyrsftsn }\IeC {\cyrn }\IeC {\cyri }\IeC {\cyrh } \IeC {\cyrz }\IeC {\cyra }\IeC {\cyrs }\IeC {\cyro }\IeC {\cyrb }\IeC {\cyrii }\IeC {\cyrv }}{18}}
\zref@newlabel{zref@2}{\abspage{19}\page{18}\pagevalue{18}}
\zref@newlabel{zref@3}{\abspage{19}\page{18}\pagevalue{18}}
\@writefile{toc}{\contentsline {subsection}{\numberline {3.2}\IeC {\CYRZ }\IeC {\cyra }\IeC {\cyrg }\IeC {\cyra }\IeC {\cyrl }\IeC {\cyrsftsn }\IeC {\cyrn }\IeC {\cyra } \IeC {\cyrs }\IeC {\cyrh }\IeC {\cyre }\IeC {\cyrm }\IeC {\cyra } \IeC {\cyrr }\IeC {\cyro }\IeC {\cyrb }\IeC {\cyro }\IeC {\cyrt }\IeC {\cyri } \IeC {\cyrs }\IeC {\cyri }\IeC {\cyrs }\IeC {\cyrt }\IeC {\cyre }\IeC {\cyrm }\IeC {\cyri }}{18}}
\citation{wavefront_obj}
\@writefile{toc}{\contentsline {subsection}{\numberline {3.3}\IeC {\CYRA }\IeC {\cyrl }\IeC {\cyrg }\IeC {\cyro }\IeC {\cyrr }\IeC {\cyri }\IeC {\cyrt }\IeC {\cyrm } \IeC {\cyra }\IeC {\cyrn }\IeC {\cyra }\IeC {\cyrl }\IeC {\cyrii }\IeC {\cyrz }\IeC {\cyru } \IeC {\cyrt }\IeC {\cyra } \IeC {\cyrz }\IeC {\cyra }\IeC {\cyrv }\IeC {\cyra }\IeC {\cyrn }\IeC {\cyrt }\IeC {\cyra }\IeC {\cyrzh }\IeC {\cyre }\IeC {\cyrn }\IeC {\cyrn }\IeC {\cyrya } \IeC {\cyrf }\IeC {\cyra }\IeC {\cyrishrt }\IeC {\cyrl }\IeC {\cyru } \IeC {\cyrt }\IeC {\cyrr }\IeC {\cyri }\IeC {\cyrv }\IeC {\cyri }\IeC {\cyrm }\IeC {\cyrii }\IeC {\cyrr }\IeC {\cyrn }\IeC {\cyro }\IeC {\cyryi } \IeC {\cyrm }\IeC {\cyro }\IeC {\cyrd }\IeC {\cyre }\IeC {\cyrl }\IeC {\cyrii }}{20}}
\zref@newlabel{zref@4}{\abspage{22}\page{21}\pagevalue{21}}
\@writefile{toc}{\contentsline {subsection}{\numberline {3.4}\IeC {\CYRA }\IeC {\cyrr }\IeC {\cyrh }\IeC {\cyrii }\IeC {\cyrt }\IeC {\cyre }\IeC {\cyrk }\IeC {\cyrt }\IeC {\cyru }\IeC {\cyrr }\IeC {\cyra } \IeC {\cyrp }\IeC {\cyrr }\IeC {\cyro }\IeC {\cyrg }\IeC {\cyrr }\IeC {\cyra }\IeC {\cyrm }\IeC {\cyri }}{22}}
\@writefile{toc}{\contentsline {subsection}{\numberline {3.5}\IeC {\CYRS }\IeC {\cyrt }\IeC {\cyrv }\IeC {\cyro }\IeC {\cyrr }\IeC {\cyre }\IeC {\cyrn }\IeC {\cyrn }\IeC {\cyrya } \IeC {\cyrz }\IeC {\cyro }\IeC {\cyrb }\IeC {\cyrr }\IeC {\cyra }\IeC {\cyrzh }\IeC {\cyre }\IeC {\cyrn }\IeC {\cyrn }\IeC {\cyrya }}{23}}
\@writefile{toc}{\contentsline {section}{\numberline {4}\IeC {\CYRF }\IeC {\cyru }\IeC {\cyrn }\IeC {\cyrk }\IeC {\cyrc }\IeC {\cyrii }\IeC {\cyro }\IeC {\cyrn }\IeC {\cyra }\IeC {\cyrl }\IeC {\cyrsftsn }\IeC {\cyrn }\IeC {\cyri }\IeC {\cyrishrt } \IeC {\cyro }\IeC {\cyrp }\IeC {\cyri }\IeC {\cyrs } \IeC {\cyra }\IeC {\cyrr }\IeC {\cyrh }\IeC {\cyrii }\IeC {\cyrt }\IeC {\cyre }\IeC {\cyrk }\IeC {\cyrt }\IeC {\cyru }\IeC {\cyrr }\IeC {\cyri } \IeC {\cyrp }\IeC {\cyrr }\IeC {\cyro }\IeC {\cyrg }\IeC {\cyrr }\IeC {\cyra }\IeC {\cyrm }\IeC {\cyri }}{24}}
\@writefile{toc}{\contentsline {subsection}{\numberline {4.1}\IeC {\CYRM }\IeC {\cyro }\IeC {\cyrd }\IeC {\cyru }\IeC {\cyrl }\IeC {\cyrsftsn } MooMath}{24}}
\@writefile{toc}{\contentsline {subsubsection}{\numberline {4.1.1}\IeC {\CYRP }\IeC {\cyrr }\IeC {\cyri }\IeC {\cyrz }\IeC {\cyrn }\IeC {\cyra }\IeC {\cyrch }\IeC {\cyre }\IeC {\cyrn }\IeC {\cyrn }\IeC {\cyrya } \IeC {\cyrt }\IeC {\cyra } \IeC {\cyrk }\IeC {\cyro }\IeC {\cyrr }\IeC {\cyro }\IeC {\cyrt }\IeC {\cyrk }\IeC {\cyri }\IeC {\cyrishrt } \IeC {\cyro }\IeC {\cyrp }\IeC {\cyri }\IeC {\cyrs } \IeC {\cyrm }\IeC {\cyro }\IeC {\cyrd }\IeC {\cyru }\IeC {\cyrl }\IeC {\cyrya }}{24}}
\@writefile{toc}{\contentsline {subsubsection}{\numberline {4.1.2}\IeC {\CYRK }\IeC {\cyrl }\IeC {\cyra }\IeC {\cyrs } Vector}{24}}
\@writefile{toc}{\contentsline {subsubsection}{\numberline {4.1.3}\IeC {\CYRK }\IeC {\cyrl }\IeC {\cyra }\IeC {\cyrs } BaseFigure}{25}}
\citation{line_line_intersection}
\@writefile{toc}{\contentsline {subsubsection}{\numberline {4.1.4}\IeC {\CYRK }\IeC {\cyrl }\IeC {\cyra }\IeC {\cyrs } Line}{26}}
\@writefile{toc}{\contentsline {subsubsection}{\numberline {4.1.5}\IeC {\CYRK }\IeC {\cyrl }\IeC {\cyra }\IeC {\cyrs } Triangle}{28}}
\citation{barycentric_coordinates}
\citation{point_in_triangle_test}
\@writefile{toc}{\contentsline {subsection}{\numberline {4.2}\IeC {\CYRM }\IeC {\cyro }\IeC {\cyrd }\IeC {\cyru }\IeC {\cyrl }\IeC {\cyrsftsn } MooMesh}{31}}
\@writefile{toc}{\contentsline {subsubsection}{\numberline {4.2.1}\IeC {\CYRK }\IeC {\cyrl }\IeC {\cyra }\IeC {\cyrs } Vertex}{31}}
\@writefile{toc}{\contentsline {subsubsection}{\numberline {4.2.2}\IeC {\CYRK }\IeC {\cyrl }\IeC {\cyra }\IeC {\cyrs } TriangleFace}{31}}
\@writefile{toc}{\contentsline {subsubsection}{\numberline {4.2.3}\IeC {\CYRK }\IeC {\cyrl }\IeC {\cyra }\IeC {\cyrs } TextureRenderer}{31}}
\@writefile{toc}{\contentsline {subsection}{\numberline {4.3}\IeC {\CYRM }\IeC {\cyro }\IeC {\cyrd }\IeC {\cyru }\IeC {\cyrl }\IeC {\cyrsftsn } MooObjFile}{31}}
\@writefile{toc}{\contentsline {subsubsection}{\numberline {4.3.1}\IeC {\CYRK }\IeC {\cyrl }\IeC {\cyra }\IeC {\cyrs } BasePolygon}{32}}
\@writefile{toc}{\contentsline {subsubsection}{\numberline {4.3.2}\IeC {\CYRK }\IeC {\cyrl }\IeC {\cyra }\IeC {\cyrs } ObjFile}{32}}
\@writefile{toc}{\contentsline {section}{\numberline {5}\IeC {\CYRR }\IeC {\cyre }\IeC {\cyrz }\IeC {\cyru }\IeC {\cyrl }\IeC {\cyrsftsn }\IeC {\cyrt }\IeC {\cyra }\IeC {\cyrt }\IeC {\cyri } \IeC {\cyrr }\IeC {\cyro }\IeC {\cyrb }\IeC {\cyro }\IeC {\cyrt }\IeC {\cyri } \IeC {\cyrp }\IeC {\cyrr }\IeC {\cyro }\IeC {\cyrg }\IeC {\cyrr }\IeC {\cyra }\IeC {\cyrm }\IeC {\cyri } \IeC {\cyrt }\IeC {\cyra } \IeC {\cyrp }\IeC {\cyro }\IeC {\cyrh }\IeC {\cyri }\IeC {\cyrb }\IeC {\cyrk }\IeC {\cyri }}{33}}
\@writefile{toc}{\contentsline {section}{\IeC {\CYRV }\IeC {\cyri }\IeC {\cyrs }\IeC {\cyrn }\IeC {\cyro }\IeC {\cyrv }\IeC {\cyrk }\IeC {\cyri }}{37}}
\@writefile{toc}{\contentsline {section}{\IeC {\CYRD }\IeC {\cyro }\IeC {\cyrd }\IeC {\cyra }\IeC {\cyrt }\IeC {\cyrk }\IeC {\cyri }}{38}}
\@writefile{toc}{\contentsline {section}{\numberline {A}\IeC {\CYRO }\IeC {\cyrh }\IeC {\cyro }\IeC {\cyrr }\IeC {\cyro }\IeC {\cyrn }\IeC {\cyra } \IeC {\cyrp }\IeC {\cyrr }\IeC {\cyra }\IeC {\cyrc }\IeC {\cyrii }}{38}}
\@writefile{toc}{\contentsline {subsection}{\numberline {A.1}\IeC {\CYRZ }\IeC {\cyra }\IeC {\cyrg }\IeC {\cyra }\IeC {\cyrl }\IeC {\cyrsftsn }\IeC {\cyrn }\IeC {\cyrii } \IeC {\cyrp }\IeC {\cyro }\IeC {\cyrl }\IeC {\cyro }\IeC {\cyrzh }\IeC {\cyre }\IeC {\cyrn }\IeC {\cyrn }\IeC {\cyrya }}{38}}
\@writefile{toc}{\contentsline {subsection}{\numberline {A.2}\IeC {\CYRV }\IeC {\cyri }\IeC {\cyrm }\IeC {\cyro }\IeC {\cyrg }\IeC {\cyri } \IeC {\cyrd }\IeC {\cyro } \IeC {\cyrv }\IeC {\cyri }\IeC {\cyrr }\IeC {\cyro }\IeC {\cyrb }\IeC {\cyrn }\IeC {\cyri }\IeC {\cyrch }\IeC {\cyri }\IeC {\cyrh } \IeC {\cyrp }\IeC {\cyrr }\IeC {\cyri }\IeC {\cyrm }\IeC {\cyrii }\IeC {\cyrshch }\IeC {\cyre }\IeC {\cyrn }\IeC {\cyrsftsn }}{39}}
\@writefile{toc}{\contentsline {subsection}{\numberline {A.3}\IeC {\CYRS }\IeC {\cyra }\IeC {\cyrn }\IeC {\cyrii }\IeC {\cyrt }\IeC {\cyra }\IeC {\cyrr }\IeC {\cyrn }\IeC {\cyro }-\IeC {\cyrg }\IeC {\cyrii }\IeC {\cyrg }\IeC {\cyrii }\IeC {\cyrie }\IeC {\cyrn }\IeC {\cyrii }\IeC {\cyrch }\IeC {\cyrn }\IeC {\cyrii } \IeC {\cyrv }\IeC {\cyri }\IeC {\cyrm }\IeC {\cyro }\IeC {\cyrg }\IeC {\cyri }}{41}}
\@writefile{toc}{\contentsline {subsection}{\numberline {A.4}\IeC {\CYRV }\IeC {\cyri }\IeC {\cyrm }\IeC {\cyro }\IeC {\cyrg }\IeC {\cyri } \IeC {\cyre }\IeC {\cyrl }\IeC {\cyre }\IeC {\cyrk }\IeC {\cyrt }\IeC {\cyrr }\IeC {\cyro }\IeC {\cyrb }\IeC {\cyre }\IeC {\cyrz }\IeC {\cyrp }\IeC {\cyre }\IeC {\cyrk }\IeC {\cyri }}{44}}
\@writefile{toc}{\contentsline {subsection}{\numberline {A.5}\IeC {\CYRV }\IeC {\cyri }\IeC {\cyrm }\IeC {\cyro }\IeC {\cyrg }\IeC {\cyri } \IeC {\cyrd }\IeC {\cyro } \IeC {\cyru }\IeC {\cyrs }\IeC {\cyrt }\IeC {\cyra }\IeC {\cyrt }\IeC {\cyrk }\IeC {\cyru }\IeC {\cyrv }\IeC {\cyra }\IeC {\cyrn }\IeC {\cyrn }\IeC {\cyrya }}{46}}
\@writefile{toc}{\contentsline {subsection}{\numberline {A.6}\IeC {\CYRV }\IeC {\cyri }\IeC {\cyrm }\IeC {\cyro }\IeC {\cyrg }\IeC {\cyri } \IeC {\cyrd }\IeC {\cyro } \IeC {\cyrr }\IeC {\cyro }\IeC {\cyrz }\IeC {\cyrm }\IeC {\cyrii }\IeC {\cyrshch }\IeC {\cyre }\IeC {\cyrn }\IeC {\cyrn }\IeC {\cyrya } \IeC {\cyru }\IeC {\cyrs }\IeC {\cyrt }\IeC {\cyra }\IeC {\cyrt }\IeC {\cyrk }\IeC {\cyru }\IeC {\cyrv }\IeC {\cyra }\IeC {\cyrn }\IeC {\cyrn }\IeC {\cyrya } \IeC {\cyrishrt } \IeC {\cyro }\IeC {\cyrr }\IeC {\cyrg }\IeC {\cyra }\IeC {\cyrn }\IeC {\cyrii }\IeC {\cyrz }\IeC {\cyra }\IeC {\cyrc }\IeC {\cyrii }\IeC {\cyryi } \IeC {\cyrr }\IeC {\cyro }\IeC {\cyrb }\IeC {\cyro }\IeC {\cyrch }\IeC {\cyri }\IeC {\cyrh } \IeC {\cyrm }\IeC {\cyrii }\IeC {\cyrs }\IeC {\cyrc }\IeC {\cyrsftsn }}{49}}
\@writefile{toc}{\contentsline {subsection}{\numberline {A.7}\IeC {\CYRV }\IeC {\cyri }\IeC {\cyrm }\IeC {\cyro }\IeC {\cyrg }\IeC {\cyri } \IeC {\cyrb }\IeC {\cyre }\IeC {\cyrz }\IeC {\cyrp }\IeC {\cyre }\IeC {\cyrk }\IeC {\cyri } \IeC {\cyrp }\IeC {\cyrr }\IeC {\cyri } \IeC {\cyre }\IeC {\cyrk }\IeC {\cyrs }\IeC {\cyrp }\IeC {\cyrl }\IeC {\cyru }\IeC {\cyra }\IeC {\cyrt }\IeC {\cyra }\IeC {\cyrc }\IeC {\cyrii }\IeC {\cyryi } \IeC {\CYRE }\IeC {\CYRO }\IeC {\CYRM }}{52}}
\@writefile{toc}{\contentsline {subsection}{\numberline {A.8}\IeC {\CYRV }\IeC {\cyri }\IeC {\cyrm }\IeC {\cyro }\IeC {\cyrg }\IeC {\cyri } \IeC {\cyrb }\IeC {\cyre }\IeC {\cyrz }\IeC {\cyrp }\IeC {\cyre }\IeC {\cyrk }\IeC {\cyri } \IeC {\cyrp }\IeC {\cyrr }\IeC {\cyri } \IeC {\cyro }\IeC {\cyrb }\IeC {\cyrs }\IeC {\cyrl }\IeC {\cyru }\IeC {\cyrg }\IeC {\cyro }\IeC {\cyrv }\IeC {\cyru }\IeC {\cyrv }\IeC {\cyra }\IeC {\cyrn }\IeC {\cyrn }\IeC {\cyrii }, \IeC {\cyrr }\IeC {\cyre }\IeC {\cyrm }\IeC {\cyro }\IeC {\cyrn }\IeC {\cyrt }\IeC {\cyrii } \IeC {\cyrii } \IeC {\cyrn }\IeC {\cyra }\IeC {\cyrl }\IeC {\cyra }\IeC {\cyrg }\IeC {\cyro }\IeC {\cyrd }\IeC {\cyrzh }\IeC {\cyre }\IeC {\cyrn }\IeC {\cyrn }\IeC {\cyrii } \IeC {\CYRE }\IeC {\CYRO }\IeC {\CYRM }}{53}}
\@writefile{toc}{\contentsline {subsection}{\numberline {A.9}\IeC {\CYRR }\IeC {\cyre }\IeC {\cyrzh }\IeC {\cyri }\IeC {\cyrm } \IeC {\cyrp }\IeC {\cyrr }\IeC {\cyra }\IeC {\cyrc }\IeC {\cyrii } \IeC {\cyrii } \IeC {\cyrv }\IeC {\cyrii }\IeC {\cyrd }\IeC {\cyrp }\IeC {\cyro }\IeC {\cyrch }\IeC {\cyri }\IeC {\cyrn }\IeC {\cyrk }\IeC {\cyru }}{55}}
\@writefile{toc}{\contentsline {subsection}{\numberline {A.10}\IeC {\CYRV }\IeC {\cyri }\IeC {\cyrm }\IeC {\cyro }\IeC {\cyrg }\IeC {\cyri } \IeC {\cyrd }\IeC {\cyro } \IeC {\cyrv }\IeC {\cyri }\IeC {\cyrr }\IeC {\cyro }\IeC {\cyrb }\IeC {\cyrn }\IeC {\cyri }\IeC {\cyrch }\IeC {\cyro }\IeC {\cyrg }\IeC {\cyro } \IeC {\cyrp }\IeC {\cyre }\IeC {\cyrr }\IeC {\cyrs }\IeC {\cyro }\IeC {\cyrn }\IeC {\cyra }\IeC {\cyrl }\IeC {\cyru }}{55}}
\@writefile{toc}{\contentsline {subsection}{\numberline {A.11}\IeC {\CYRO }\IeC {\cyrb }\IeC {\cyro }\IeC {\cyrv }'\IeC {\cyrya }\IeC {\cyrz }\IeC {\cyrk }\IeC {\cyri }, \IeC {\cyrp }\IeC {\cyrr }\IeC {\cyra }\IeC {\cyrv }\IeC {\cyra } \IeC {\cyrii } \IeC {\cyrv }\IeC {\cyrii }\IeC {\cyrd }\IeC {\cyrp }\IeC {\cyro }\IeC {\cyrv }\IeC {\cyrii }\IeC {\cyrd }\IeC {\cyra }\IeC {\cyrl }\IeC {\cyrsftsn }\IeC {\cyrn }\IeC {\cyrii }\IeC {\cyrs }\IeC {\cyrt }\IeC {\cyrsftsn } \IeC {\cyrz }\IeC {\cyra } \IeC {\cyrp }\IeC {\cyro }\IeC {\cyrr }\IeC {\cyru }\IeC {\cyrsh }\IeC {\cyre }\IeC {\cyrn }\IeC {\cyrn }\IeC {\cyrya } \IeC {\cyrp }\IeC {\cyrr }\IeC {\cyra }\IeC {\cyrv }\IeC {\cyri }\IeC {\cyrl }}{57}}
\bibstyle{gost2008}
\bibdata{literature.bib}
\bibcite{lscm}{1}
\bibcite{parameterization}{2}
\bibcite{polygon_triangulation}{3}
\bibcite{wavefront_obj}{4}
\bibcite{line_line_intersection}{5}
\bibcite{barycentric_coordinates}{6}
\bibcite{point_in_triangle_test}{7}
\@writefile{toc}{\contentsline {section}{{\Ukrainian  \CYRP \cyre \cyrr \cyre \cyrl \cyrii \cyrk \ \cyrp \cyro \cyrs \cyri \cyrl \cyra \cyrn \cyrsftsn }}{59}}
\newlabel{LastPage}{{}{59}}
\xdef\lastpage@lastpage{59}
\gdef\lastpage@lastpageHy{}
